Data Modeling
…
monthly.comissions.forecasted <- monthly.comissions.forecast %>%
  hilo() %>%
  unpack_hilo(c("80%", "95%")) %>%
  mutate(across(-(.model:log.comission), ~exp(.))) %>%
  select(-c(.model, log.comission)) %>%
  rename(forecast=.mean)

monthly.comissions.actual.and.forecasted <- monthly.comissions %>%
  mutate(comission=exp(log.comission)) %>%
  select(-c(log.comission)) %>%
  full_join(monthly.comissions.forecasted, by=c("date"="date"))

monthly.comissions.actual.and.forecasted

## # A tsibble: 41 x 7 [1M]
##        date comission forecast `80%_lower` `80%_upper` `95%_lower` `95%_upper`
##       <mth>     <dbl>    <dbl>       <dbl>       <dbl>       <dbl>       <dbl>
##  1 2019 ago      110.       NA          NA          NA          NA          NA
##  2 2019 set      783.       NA          NA          NA          NA          NA
##  3 2019 out     9216.       NA          NA          NA          NA          NA
##  4 2019 nov    23425.       NA          NA          NA          NA          NA
##  5 2019 dez    47736.       NA          NA          NA          NA          NA
##  6 2020 jan    96531.       NA          NA          NA          NA          NA
##  7 2020 fev    82504.       NA          NA          NA          NA          NA
##  8 2020 mar    36732.       NA          NA          NA          NA          NA
##  9 2020 abr     2896.       NA          NA          NA          NA          NA
## 10 2020 mai     2702.       NA          NA          NA          NA          NA
## #  with 31 more rows
…
monthly.comissions.forecasted <- monthly.comissions.forecast %>%
  hilo() %>%
  unpack_hilo(c("80%", "95%")) %>%
  select(-c(.model, comission)) %>%
  rename(forecast=.mean)

monthly.comissions.actual.and.forecasted <- monthly.comissions.no.log %>%
  full_join(monthly.comissions.forecasted, by=c("date"="date"))

monthly.comissions.actual.and.forecasted

## # A tsibble: 41 x 7 [1M]
##        date comission forecast `80%_lower` `80%_upper` `95%_lower` `95%_upper`
##       <mth>     <dbl>    <dbl>       <dbl>       <dbl>       <dbl>       <dbl>
##  1 2019 ago      109.       NA          NA          NA          NA          NA
##  2 2019 set      782.       NA          NA          NA          NA          NA
##  3 2019 out     9215.       NA          NA          NA          NA          NA
##  4 2019 nov    23424.       NA          NA          NA          NA          NA
##  5 2019 dez    47735.       NA          NA          NA          NA          NA
##  6 2020 jan    96530.       NA          NA          NA          NA          NA
##  7 2020 fev    82503.       NA          NA          NA          NA          NA
##  8 2020 mar    36731.       NA          NA          NA          NA          NA
##  9 2020 abr     2895.       NA          NA          NA          NA          NA
## 10 2020 mai     2701.       NA          NA          NA          NA          NA
## #  with 31 more rows
…
